%YAML 1.1
%TAG !u! tag:unity3d.com,2011:
--- !u!1045 &1
EditorBuildSettings:
  m_ObjectHideFlags: 0
  serializedVersion: 2
  m_Scenes:
  - enabled: 1
    path: Assets/Tetris/Scenes/Game.unity
    guid: 578f849ef8b8fc04d821de35696f2de1
  m_configObjects: {}
